※https://shopee.vn/%C3%81o-Kho%C3%A1c-cat.11035567.11035568
https://shopee.vn/%C3%81o-kho%C3%A1c-nam-n%E1%BB%AF-unisex-2-l%E1%BB%9Bp-ch%E1%BB%91ng-n%C6%B0%E1%BB%9Bc-cao-c%E1%BA%A5p-%C3%A1o-gi%C3%B3-nam-n%E1%BB%AF-m%E1%BA%ABu-m%E1%BB%9Bi-si%C3%AAu-hot-2021-ZATA-VN-i.67864923.12908797824?sp_atk=ea817ff4-99d1-42c4-b465-5aa7b6ac9e20
https://shopee.vn/%C3%81o-ch%E1%BB%91ng-n%E1%BA%AFng-nam-n%E1%BB%AF-d%C3%A0y-d%E1%BA%B7n-cao-c%E1%BA%A5p-th%E1%BA%A5m-h%C3%BAt-m%E1%BB%93-h%C3%B4i-ch%E1%BB%91ng-tia-uv-i.33435563.5337914837?sp_atk=1d2df610-58f7-4efb-9627-16b6a3038442
https://shopee.vn/-M%C3%A3-FAMARAL2-gi%E1%BA%A3m-10K-%C4%91%C6%A1n-50K-HOT-TREND-%C3%81O-KHO%C3%81C-KAKI-JEAN-NAM-%C4%90%E1%BA%B8P-TH%E1%BB%9CI-TRANG-M%E1%BB%9AI-NH%E1%BA%A4T-2019-KKN01-i.167989440.2623103363?sp_atk=286d6e6f-f662-4676-8d25-e75879c1699b
https://shopee.vn/-M%C3%A3-CBSD183I-gi%E1%BA%A3m-10K-%C4%91%C6%A1n-0K-%C3%81o-kho%C3%A1c-b%C3%B3ng-ch%C3%A0y-d%C3%A1ng-r%E1%BB%99ng-th%E1%BB%9Di-trang-H%C3%A0n-Qu%E1%BB%91c-cho-nam-i.419394380.3788202314?sp_atk=a4974c52-18b9-4945-8f99-564de19886a8
https://shopee.vn/%C3%81o-kho%C3%A1c-unisex-l%C3%B3t-l%C3%B4ng-c%E1%BB%ABu-%E2%9A%A1-%F0%9D%90%87%F0%9D%90%9A%CC%80%F0%9D%90%A7%F0%9D%90%A0-%F0%9D%90%82%F0%9D%90%9A%F0%9D%90%A8-%F0%9D%90%82%F0%9D%90%9A%CC%82%CC%81%F0%9D%90%A9-%E2%9A%A1-Nam-n%E1%BB%AF-%C4%91%E1%BB%81u-m%E1%BA%B7c-%C3%A1o-d%C3%A0y-d%E1%BA%B7n-si%C3%AAu-%E1%BA%A5m-ch%E1%BA%A5t-si%C3%AAu-%C4%91%E1%BA%B9p-i.400003849.13650639922?sp_atk=7661045d-b737-4125-95db-1db50adbd32a
